{
	"info": {
		"_postman_id": "3b2c822b-90ed-4fba-aabc-8a6c0cf4f505",
		"name": "[MAQUINA] Ponto Eletronico",
		"schema": "https://schema.getpostman.com/json/collection/v2.1.0/collection.json"
	},
	"item": [
		{
			"name": "ConsultaPonto",
			"request": {
				"method": "GET",
				"header": [],
				"body": {
					"mode": "raw",
					"raw": ""
				},
				"url": {
					"raw": "http://40.91.210.192/ponto/consultar/1?tipo=todos",
					"protocol": "http",
					"host": [
						"40",
						"91",
						"210",
						"192"
					],
					"path": [
						"ponto",
						"consultar",
						"1"
					],
					"query": [
						{
							"key": "tipo",
							"value": "todos"
						}
					]
				}
			},
			"response": []
		},
		{
			"name": "Registrar Ponto",
			"request": {
				"method": "POST",
				"header": [
					{
						"key": "Content-Type",
						"name": "Content-Type",
						"value": "application/json",
						"type": "text"
					}
				],
				"body": {
					"mode": "raw",
					"raw": "{\n\t\"data\": \"30/05/2019\",\n\t\"hora\": \"18:30\",\n\t\"colaborador\":{\n\t\t\"funcional\": \"1\",\n\t\t\"nome\": \"Maria\",\n\t\t\"cpf\": \"37137706894\",\n\t\t\"cargo\": \"ANALISTA\",\n\t\t\"cargaHoraria\": \"8\"\n\t},\n\t\"tipoRegistro\":\"ENTRADA\",\n\t\"status\":\"0\",\n\t\"justificativa\":\"NDA\"\n}"
				},
				"url": {
					"raw": "http://40.91.210.192/ponto/registrar",
					"protocol": "http",
					"host": [
						"40",
						"91",
						"210",
						"192"
					],
					"path": [
						"ponto",
						"registrar"
					]
				}
			},
			"response": []
		},
		{
			"name": "Cadastrar Funcionario",
			"request": {
				"method": "POST",
				"header": [
					{
						"key": "Content-Type",
						"name": "Content-Type",
						"value": "application/json",
						"type": "text"
					}
				],
				"body": {
					"mode": "raw",
					"raw": "{\n\t\"nome\": \"Maria\",\n\t\"cpf\": \"37137706894\",\n\t\"cargo\": \"ANALISTA\",\n\t\"cargaHoraria\": \"8\"\n\t\n}"
				},
				"url": {
					"raw": "http://40.91.210.192/ponto/colaborador/cadastra",
					"protocol": "http",
					"host": [
						"40",
						"91",
						"210",
						"192"
					],
					"path": [
						"ponto",
						"colaborador",
						"cadastra"
					]
				}
			},
			"response": []
		}
	]
}